Sailor Shift: Rise and Resonance – ISSS608-VAA
…
# Sailor's works
creative_edge_types <- c("PerformerOf")

perf_edges <- graph %>%
  activate(edges) %>%
  as_tibble() %>%
  filter(`Edge Type` %in% creative_edge_types, from == sailor_idx)

sailor_works_idx <- perf_edges %>% pull(to) %>% unique()

nodes_tbl[sailor_works_idx, ]

# A tibble: 26 × 10
   `Node Type` name         single release_date genre notable    id written_date
   <chr>       <chr>        <lgl>  <chr>        <chr> <lgl>   <int> <chr>       
 1 Album       Tidal Pop W… NA     2028         Ocea… TRUE    17272 2027        
 2 Album       Salty Dreams NA     2030         Ocea… TRUE    17273 2029        
 3 Album       The Current… NA     2032         Ocea… TRUE    17274 2031        
 4 Album       Coral Beats  NA     2034         Ocea… TRUE    17275 2033        
 5 Album       Tides & Bal… NA     2036         Ocea… TRUE    17276 2035        
 6 Album       Oceanbound   NA     2038         Ocea… TRUE    17277 2037        
 7 Album       Echoes of t… NA     2040         Ocea… TRUE    17278 2039        
 8 Song        High Tide H… TRUE   2028         Ocea… FALSE   17279 <NA>        
 9 Song        Electric Ee… FALSE  2028         Ocea… TRUE    17280 <NA>        
10 Song        Sun-Drenche… FALSE  2028         Ocea… FALSE   17281 <NA>        
# ℹ 16 more rows
# ℹ 2 more variables: stage_name <chr>, notoriety_date <chr>

# Oceanus Folk Community works
oceanus_works_idx <- nodes_tbl %>%
  mutate(idx = row_number()) %>%
  filter(genre == "Oceanus Folk") %>%
  pull(idx)

# Combine all nodes
focus_idx <- unique(c(sailor_works_idx, oceanus_works_idx))

nodes_tbl[focus_idx, ]

# A tibble: 305 × 10
   `Node Type` name         single release_date genre notable    id written_date
   <chr>       <chr>        <lgl>  <chr>        <chr> <lgl>   <int> <chr>       
 1 Album       Tidal Pop W… NA     2028         Ocea… TRUE    17272 2027        
 2 Album       Salty Dreams NA     2030         Ocea… TRUE    17273 2029        
 3 Album       The Current… NA     2032         Ocea… TRUE    17274 2031        
 4 Album       Coral Beats  NA     2034         Ocea… TRUE    17275 2033        
 5 Album       Tides & Bal… NA     2036         Ocea… TRUE    17276 2035        
 6 Album       Oceanbound   NA     2038         Ocea… TRUE    17277 2037        
 7 Album       Echoes of t… NA     2040         Ocea… TRUE    17278 2039        
 8 Song        High Tide H… TRUE   2028         Ocea… FALSE   17279 <NA>        
 9 Song        Electric Ee… FALSE  2028         Ocea… TRUE    17280 <NA>        
10 Song        Sun-Drenche… FALSE  2028         Ocea… FALSE   17281 <NA>        
# ℹ 295 more rows
# ℹ 2 more variables: stage_name <chr>, notoriety_date <chr>
…
